{
  "message": "Data paginated correctly",
  "meta": {},
  "data": {
    "items": [
      {
        "contract_id": "01K6MTMEP5HHJ5YFSQ5ZGY0JTM",
        "unit_id": "01K6MNBWG8G1Y2B40RDWJ098XE",
        "customer_id": "01K6MVF2Z1ETM5P3J4FSKPGSXN",
        "action_type": 1,
        "action_due_date": "2025-12-01",
        "doc_number": "KML0/SP1/11/25/00001",
        "payment_schedule_detail_id": "01K6MVFWW8KRW6QV3TFGSTKKFP",
        "collection_action_log_id": "01K6MVZV1M6G6XGCDQ1FWT48K9",
        "cc_name": null,
        "to_name": null,
        "id": "01K6MW0AB90PXWV7XXDFWHTHC1",
        "created_by": "system",
        "updated_by": "reky.frans@agungsedayu.com",
        "updated_at": "2025-11-18T08:27:25.941430",
        "created_at": "2025-11-24T00:00:00",
        "collection_action_id": "01K6MW0AB1Q976RB65B5C4QQ35",
        "iom_pengosongan_number": null,
        "surat_pengosongan_number": null,
        "has_attachment": false,
        "tracking_number": null,
        "send_via": null,
        "send_date": null,
        "upload_by": null,
        "status_cheque": false,
        "status_print": true,
        "status_wa": false,
        "unit_code": "VSHIA-050",
        "customer_name": "KELVIN TEST SUB PROJECT KML",
        "customer_code": null,
        "sub_project_name": "VRUKAN SHINY SHIBUYA",
        "sub_project_code": "VSHI",
        "reservation_no": "KML0/RSV/1025/00005",
        "payment_schedule_no": "PS/2510/00012",
        "payment_schedule_date": "2025-11-10",
        "payment_schedule_descs": "VSHIA-050/Invoice Angsuran 2/36",
        "sp_type": "SP1",
        "bast_date": null,
        "total_outstanding_amount": 116112000,
        "total_fine_final_amount": 1625568,
        "is_HOP": false,
        "is_VVIP": false,
        "is_LPTD": false,
        "is_barter": false
      },
      {
        "contract_id": "01K6MTWYV5MTFZM2NNDX3X24TG",
        "unit_id": "01K2H67YC6QQBWCFH27P7P0V75",
        "customer_id": "01K6MVGDHEPJNABNPZ98YS6ES7",
        "action_type": 1,
        "action_due_date": "2025-12-01",
        "doc_number": "MBM0/SP1/11/25/00001",
        "payment_schedule_detail_id": "01K6MVGZWK0636AD7WMTZKBW8T",
        "collection_action_log_id": "01K6MVZV1M6G6XGCDQ1FWT48K9",
        "cc_name": null,
        "to_name": null,
        "id": "01K6MW0AB9GARK9CBKNCC159R4",
        "created_by": "system",
        "updated_by": "system",
        "updated_at": "2025-11-24T00:00:00",
        "created_at": "2025-11-24T00:00:00",
        "collection_action_id": "01K6MW0AB8YKVY8PY3YC7CNH5B",
        "iom_pengosongan_number": null,
        "surat_pengosongan_number": null,
        "has_attachment": false,
        "tracking_number": null,
        "send_via": null,
        "send_date": null,
        "upload_by": null,
        "status_cheque": false,
        "status_print": true,
        "status_wa": false,
        "unit_code": "VSHIA-040",
        "customer_name": "KELVIN TEST SUB PROJECT MBM",
        "customer_code": null,
        "sub_project_name": "VRUKAN SHINY SHIBUYA",
        "sub_project_code": "VSHI",
        "reservation_no": "MBM0/RSV/1025/00002",
        "payment_schedule_no": "PS/2510/00013",
        "payment_schedule_date": "2025-11-10",
        "payment_schedule_descs": "VSHIA-040/Invoice Angsuran 2/36",
        "sp_type": "SP1",
        "bast_date": null,
        "total_outstanding_amount": 100000000,
        "total_fine_final_amount": 1645000,
        "is_HOP": false,
        "is_VVIP": false,
        "is_LPTD": false,
        "is_barter": false
      },
      {
        "contract_id": "01JY0HHDP9XDKBDDSADVX5DEFV",
        "unit_id": "01JXWSARCBFRFZSZT96G4JBDDY",
        "customer_id": "01JY11RBSMH6YP7XM61NCXJ5PT",
        "action_type": 3,
        "action_due_date": "2025-11-06",
        "doc_number": "MBM0/SP3/10/25/00002",
        "payment_schedule_detail_id": "01JY11S0QKSG71TT5GF13WM6YD",
        "collection_action_log_id": null,
        "cc_name": null,
        "to_name": null,
        "id": "01K8SA1YP082BSRPH39E1K3KB1",
        "created_by": "system",
        "updated_by": "system",
        "updated_at": "2025-10-30T01:00:02.112644",
        "created_at": "2025-10-30T01:00:02.112648",
        "collection_action_id": "01JZHE4A8W2MFWKAWE6T7TZKX7",
        "iom_pengosongan_number": null,
        "surat_pengosongan_number": null,
        "has_attachment": false,
        "tracking_number": null,
        "send_via": null,
        "send_date": null,
        "upload_by": null,
        "status_cheque": false,
        "status_print": false,
        "status_wa": false,
        "unit_code": "VUT-RLBA008",
        "customer_name": "KA MU",
        "customer_code": "2000000106",
        "sub_project_name": "VVRUKAN LA RIVIERA",
        "sub_project_code": "RL",
        "reservation_no": "MBM0/RSV/0625/00022",
        "payment_schedule_no": "PS/2506/00368",
        "payment_schedule_date": "2025-06-30",
        "payment_schedule_descs": "UT-RLBA008/Invoice Angsuran 1/36",
        "sp_type": "SP3",
        "bast_date": null,
        "total_outstanding_amount": 893000000,
        "total_fine_final_amount": 54697000,
        "is_HOP": false,
        "is_VVIP": false,
        "is_LPTD": false,
        "is_barter": false
      },
      {
        "contract_id": "01K09FYMBDSZNQFEZEA87W82ZS",
        "unit_id": "01JZS420QCBBCSW1M5HVG5479J",
        "customer_id": "01JXM73DXXNS54EQP1M76VJPJR",
        "action_type": 4,
        "action_due_date": "2025-10-23",
        "doc_number": "MAS0/SPB/10/25/00033",
        "payment_schedule_detail_id": "01K1316ZHPTKCEXW8YAW215N8M",
        "collection_action_log_id": "01K85Y2J2XCXJA82EF38DN251K",
        "cc_name": null,
        "to_name": null,
        "id": "01K85Y3EFD6ZJ435Y5FN1TYNJQ",
        "created_by": "system",
        "updated_by": "system",
        "updated_at": "2025-10-23T12:25:04.907507",
        "created_at": "2025-10-23T12:25:04.907507",
        "collection_action_id": "01K5QS91C8TN3CA2B9QFH1649E",
        "iom_pengosongan_number": null,
        "surat_pengosongan_number": null,
        "has_attachment": false,
        "tracking_number": null,
        "send_via": null,
        "send_date": null,
        "upload_by": null,
        "status_cheque": false,
        "status_print": false,
        "status_wa": false,
        "unit_code": "ALA3-032",
        "customer_name": "OLIVIA YULIANI ALIM",
        "customer_code": null,
        "sub_project_name": "CLUSTER ALABAMA",
        "sub_project_code": "ALA",
        "reservation_no": "MAS/RSV/0222/000033",
        "payment_schedule_no": "PS/0422/009337",
        "payment_schedule_date": "2025-07-25",
        "payment_schedule_descs": "ALA3-032/Invoice Angsuran 42/120",
        "sp_type": "SPB",
        "bast_date": "2024-08-03",
        "total_outstanding_amount": 59031819,
        "total_fine_final_amount": 3482878,
        "is_HOP": false,
        "is_VVIP": false,
        "is_LPTD": false,
        "is_barter": false
      },
      {
        "contract_id": "01K09FYMBDMEQRDDBYNYPXMSXE",
        "unit_id": "01JZS420QP3F9Z60FNRVVM1HME",
        "customer_id": "01JZMK90HTF3YNX3ZY805ZM2ZM",
        "action_type": 4,
        "action_due_date": "2025-10-23",
        "doc_number": "MAS0/SPB/10/25/00032",
        "payment_schedule_detail_id": "01K131711DW71ZD9X804JZ77Y6",
        "collection_action_log_id": "01K85Y2J2XCXJA82EF38DN251K",
        "cc_name": null,
        "to_name": null,
        "id": "01K85Y3EFD5SZX7QXZT15KPDJA",
        "created_by": "system",
        "updated_by": "system",
        "updated_at": "2025-10-23T12:25:04.907507",
        "created_at": "2025-10-23T12:25:04.907507",
        "collection_action_id": "01K5QS91C8KEWF9VHX8S9A76XX",
        "iom_pengosongan_number": null,
        "surat_pengosongan_number": null,
        "has_attachment": false,
        "tracking_number": null,
        "send_via": null,
        "send_date": null,
        "upload_by": null,
        "status_cheque": false,
        "status_print": false,
        "status_wa": false,
        "unit_code": "NCAL1-011",
        "customer_name": "IGNACIUS MAEGNER HIDAJAT",
        "customer_code": null,
        "sub_project_name": "CLUSTER CALIFORNIA",
        "sub_project_code": "CAL",
        "reservation_no": "MAS/RSV/1021/000044",
        "payment_schedule_no": "PS/0422/009136",
        "payment_schedule_date": "2025-07-25",
        "payment_schedule_descs": "NCAL1-011/Invoice Angsuran 46/144",
        "sp_type": "SPB",
        "bast_date": "2024-08-16",
        "total_outstanding_amount": 48436365,
        "total_fine_final_amount": 2857746,
        "is_HOP": false,
        "is_VVIP": false,
        "is_LPTD": false,
        "is_barter": false
      },
      {
        "contract_id": "01JY0J5NT2FVSH74D7M2YGZ7Z7",
        "unit_id": "01JXVXHP2F2YTN90TZQ54ZXE8M",
        "customer_id": "01JY10X277AT71365ZCREDDDN5",
        "action_type": 4,
        "action_due_date": "2025-10-23",
        "doc_number": "KML0/SPB/10/25/00054",
        "payment_schedule_detail_id": "01JY10XQMX5SZCJVMEHTW1TN1T",
        "collection_action_log_id": "01K85Y2J2XCXJA82EF38DN251K",
        "cc_name": null,
        "to_name": null,
        "id": "01K85Y3EEGGRPG9X9FC7JN6NM7",
        "created_by": "system",
        "updated_by": "system",
        "updated_at": "2025-10-23T12:25:04.907507",
        "created_at": "2025-10-23T12:25:04.907507",
        "collection_action_id": "01JZQS97P4R994XY7W17GZD12K",
        "iom_pengosongan_number": null,
        "surat_pengosongan_number": null,
        "has_attachment": false,
        "tracking_number": null,
        "send_via": null,
        "send_date": null,
        "upload_by": null,
        "status_cheque": false,
        "status_print": false,
        "status_wa": false,
        "unit_code": "VUA-ARC45",
        "customer_name": "FRIESLANA SURYA CHINDI",
        "customer_code": "2000000104",
        "sub_project_name": "VVARCADIA",
        "sub_project_code": "ARC",
        "reservation_no": "KML0/RSV/0625/00156",
        "payment_schedule_no": "PS/2506/00366",
        "payment_schedule_date": "2025-07-25",
        "payment_schedule_descs": "UA-ARC45/Invoice Angsuran 2/5",
        "sp_type": "SPB",
        "bast_date": null,
        "total_outstanding_amount": 3990000000,
        "total_fine_final_amount": 74250000,
        "is_HOP": false,
        "is_VVIP": false,
        "is_LPTD": false,
        "is_barter": true
      },
      {
        "contract_id": "01JY0HE2HTBEG08XC2N3GN147C",
        "unit_id": "01JXAHD5GNYX2FY8JHAV2KCPRE",
        "customer_id": "01JY3DPN0A4YNRVKYWK8BQYCQF",
        "action_type": 4,
        "action_due_date": "2025-10-23",
        "doc_number": "KML0/SPB/10/25/00055",
        "payment_schedule_detail_id": "01JY3DQA5C4P9AR6JT4MQHEVHB",
        "collection_action_log_id": "01K85Y2J2XCXJA82EF38DN251K",
        "cc_name": null,
        "to_name": null,
        "id": "01K85Y3EFDMZZ0P0ZT5HBV9HTV",
        "created_by": "system",
        "updated_by": "system",
        "updated_at": "2025-10-23T12:25:04.907507",
        "created_at": "2025-10-23T12:25:04.907507",
        "collection_action_id": "01K5QS91C877Y9KXAJ1KQQ1YE4",
        "iom_pengosongan_number": null,
        "surat_pengosongan_number": null,
        "has_attachment": false,
        "tracking_number": null,
        "send_via": null,
        "send_date": null,
        "upload_by": null,
        "status_cheque": false,
        "status_print": true,
        "status_wa": false,
        "unit_code": "VSAN7-009A",
        "customer_name": "PT. alyssa dagu",
        "customer_code": null,
        "sub_project_name": "VVSAN ANTONIO",
        "sub_project_code": "SAN",
        "reservation_no": "KML0/RSV/0625/00150",
        "payment_schedule_no": "PS/2506/00404",
        "payment_schedule_date": "2025-07-25",
        "payment_schedule_descs": "SAN7-009A/Invoice Angsuran 2/36",
        "sp_type": "SPB",
        "bast_date": null,
        "total_outstanding_amount": 338288000,
        "total_fine_final_amount": 14969244,
        "is_HOP": true,
        "is_VVIP": true,
        "is_LPTD": true,
        "is_barter": false
      },
      {
        "contract_id": "01JY1CR0X08WN2ENY2T4NSKZ0J",
        "unit_id": "01JXFJXG4NPEPP52K5H6TPYCH1",
        "customer_id": "01JYDE68QCZ3H38C3DF477MFSP",
        "action_type": 4,
        "action_due_date": "2025-10-23",
        "doc_number": "KML0/SPB/10/25/00056",
        "payment_schedule_detail_id": "01JYDE6ZX5MNN1PKVQBGA3SXH6",
        "collection_action_log_id": "01K85Y2J2XCXJA82EF38DN251K",
        "cc_name": null,
        "to_name": null,
        "id": "01K85Y3EFDMX882FNDCPV1XKYX",
        "created_by": "system",
        "updated_by": "system",
        "updated_at": "2025-10-23T12:25:04.907507",
        "created_at": "2025-10-23T12:25:04.907507",
        "collection_action_id": "01K5QS91C8RC11DVXGR0ZPH4RY",
        "iom_pengosongan_number": null,
        "surat_pengosongan_number": null,
        "has_attachment": false,
        "tracking_number": null,
        "send_via": null,
        "send_date": null,
        "upload_by": null,
        "status_cheque": false,
        "status_print": false,
        "status_wa": false,
        "unit_code": "VARC5-017",
        "customer_name": "Mariah Carey & Pandji  Pragiwaksono",
        "customer_code": "1000000033",
        "sub_project_name": "VVARCADIA",
        "sub_project_code": "ARC",
        "reservation_no": "KML0/RSV/0625/00177",
        "payment_schedule_no": "PS/2506/00507",
        "payment_schedule_date": "2025-07-25",
        "payment_schedule_descs": "ARC5-017/Invoice Angsuran 2/36",
        "sp_type": "SPB",
        "bast_date": null,
        "total_outstanding_amount": 0,
        "total_fine_final_amount": 55068948,
        "is_HOP": false,
        "is_VVIP": false,
        "is_LPTD": false,
        "is_barter": false
      },
      {
        "contract_id": "01K09FWA5AQ9JKNTVE20DR1P5D",
        "unit_id": "06B64MH4MBJVJFCYD68H7PBYA4",
        "customer_id": "01JZSQ2JHG6RXTZHWM2YKY8P8B",
        "action_type": 4,
        "action_due_date": "2025-10-23",
        "doc_number": "KML0/SPB/10/25/00057",
        "payment_schedule_detail_id": "01K131Q6B810TV1S9WC6Z8DEQT",
        "collection_action_log_id": "01K85Y2J2XCXJA82EF38DN251K",
        "cc_name": null,
        "to_name": null,
        "id": "01K85Y3EFDM91GSYP4A4VMSBYK",
        "created_by": "system",
        "updated_by": "system",
        "updated_at": "2025-10-23T12:25:04.907507",
        "created_at": "2025-10-23T12:25:04.907507",
        "collection_action_id": "01K5QS91C8NBTQ90AHP49M6920",
        "iom_pengosongan_number": null,
        "surat_pengosongan_number": null,
        "has_attachment": false,
        "tracking_number": null,
        "send_via": null,
        "send_date": null,
        "upload_by": null,
        "status_cheque": false,
        "status_print": false,
        "status_wa": false,
        "unit_code": "OSA33-51A",
        "customer_name": "ALEXANDRA P. DURRANT",
        "customer_code": null,
        "sub_project_name": "TOWER ASAHIKAWA",
        "sub_project_code": "OSA-OSA",
        "reservation_no": "KML/RSV/1020/000028",
        "payment_schedule_no": "PS/0422/005680",
        "payment_schedule_date": "2025-07-25",
        "payment_schedule_descs": "OSA33-51A/Invoice Angsuran 58/60",
        "sp_type": "SPB",
        "bast_date": null,
        "total_outstanding_amount": 13017273,
        "total_fine_final_amount": 768019,
        "is_HOP": false,
        "is_VVIP": false,
        "is_LPTD": false,
        "is_barter": false
      },
      {
        "contract_id": "01K09FWA5ACFTW9Q5BTACMEXG7",
        "unit_id": "06B64MH0Z6W4PDR9AKYMX9TPN0",
        "customer_id": "01JZSQ2JHGFGMT2JQZR9TJFCA9",
        "action_type": 4,
        "action_due_date": "2025-10-23",
        "doc_number": "KML0/SPB/10/25/00058",
        "payment_schedule_detail_id": "01K131Q8KJJW8VY2ZV3EVG6CAF",
        "collection_action_log_id": "01K85Y2J2XCXJA82EF38DN251K",
        "cc_name": null,
        "to_name": null,
        "id": "01K85Y3EFD7S2DKEVF2PGKAEPR",
        "created_by": "system",
        "updated_by": "system",
        "updated_at": "2025-10-23T12:25:04.907507",
        "created_at": "2025-10-23T12:25:04.907507",
        "collection_action_id": "01K5QS91C8AHVZ5W23JM33F2M1",
        "iom_pengosongan_number": null,
        "surat_pengosongan_number": null,
        "has_attachment": false,
        "tracking_number": null,
        "send_via": null,
        "send_date": null,
        "upload_by": null,
        "status_cheque": false,
        "status_print": false,
        "status_wa": false,
        "unit_code": "OSA03-29B",
        "customer_name": "ARFAN",
        "customer_code": null,
        "sub_project_name": "TOWER ASAHIKAWA",
        "sub_project_code": "OSA-OSA",
        "reservation_no": "KML/RSV/1221/000039",
        "payment_schedule_no": "PS/0422/006856",
        "payment_schedule_date": "2025-07-25",
        "payment_schedule_descs": "OSA03-29B/Invoice Angsuran 45/120",
        "sp_type": "SPB",
        "bast_date": null,
        "total_outstanding_amount": 11200908,
        "total_fine_final_amount": 660854,
        "is_HOP": false,
        "is_VVIP": false,
        "is_LPTD": false,
        "is_barter": false
      },
      {
        "contract_id": "01K09FWA566WNBW45GQ2TREGNC",
        "unit_id": "01JZS1624Y56QAVSBV6RN7VP9D",
        "customer_id": "01JXKPWN003780WZENZSAKE1E8",
        "action_type": 4,
        "action_due_date": "2025-10-23",
        "doc_number": "KML0/SPB/10/25/00059",
        "payment_schedule_detail_id": "01K131Q8M3S34G2RV13NP89N80",
        "collection_action_log_id": "01K85Y2J2XCXJA82EF38DN251K",
        "cc_name": null,
        "to_name": null,
        "id": "01K85Y3EFDHF6P8XGMPYWMHF9P",
        "created_by": "system",
        "updated_by": "system",
        "updated_at": "2025-10-23T12:25:04.907507",
        "created_at": "2025-10-23T12:25:04.907507",
        "collection_action_id": "01K5QS91C83B2NVXG1Q424YQBK",
        "iom_pengosongan_number": null,
        "surat_pengosongan_number": null,
        "has_attachment": false,
        "tracking_number": null,
        "send_via": null,
        "send_date": null,
        "upload_by": null,
        "status_cheque": false,
        "status_print": false,
        "status_wa": false,
        "unit_code": "KV2-132",
        "customer_name": "DENNIS MARHALIM",
        "customer_code": null,
        "sub_project_name": "MEGA KUNINGAN VILLAGE",
        "sub_project_code": "CLMV",
        "reservation_no": "KML/RSV/0923/000017",
        "payment_schedule_no": "PS/0923/000153",
        "payment_schedule_date": "2025-07-25",
        "payment_schedule_descs": "KV2-132/Invoice Angsuran 23/25",
        "sp_type": "SPB",
        "bast_date": null,
        "total_outstanding_amount": 2987000000,
        "total_fine_final_amount": 84659000,
        "is_HOP": false,
        "is_VVIP": false,
        "is_LPTD": false,
        "is_barter": false
      },
      {
        "contract_id": "01K09FWA5FB756C1Y8D7R59YEG",
        "unit_id": "06B64MH2XNBPWZSHYY6XQ8D48C",
        "customer_id": "01JZSQ2JHG9FM3TY6W4QKF5MXG",
        "action_type": 4,
        "action_due_date": "2025-10-23",
        "doc_number": "KML0/SPB/10/25/00060",
        "payment_schedule_detail_id": "01K131Q9R2Y523TP829NSNB3BX",
        "collection_action_log_id": "01K85Y2J2XCXJA82EF38DN251K",
        "cc_name": null,
        "to_name": null,
        "id": "01K85Y3EFD2MZZYRFF3V7ACD1C",
        "created_by": "system",
        "updated_by": "system",
        "updated_at": "2025-10-23T12:25:04.907507",
        "created_at": "2025-10-23T12:25:04.907507",
        "collection_action_id": "01K1XSRTABRJRDXA8D7THTQEBX",
        "iom_pengosongan_number": null,
        "surat_pengosongan_number": null,
        "has_attachment": false,
        "tracking_number": null,
        "send_via": null,
        "send_date": null,
        "upload_by": null,
        "status_cheque": false,
        "status_print": false,
        "status_wa": false,
        "unit_code": "OSA20-52B",
        "customer_name": "SIAU INTAN",
        "customer_code": null,
        "sub_project_name": "TOWER ASAHIKAWA",
        "sub_project_code": "OSA-OSA",
        "reservation_no": "KML/RSV/1021/000059",
        "payment_schedule_no": "PS/0422/006690",
        "payment_schedule_date": "2025-07-25",
        "payment_schedule_descs": "OSA20-52B/Invoice Angsuran 47/120",
        "sp_type": "SPB",
        "bast_date": null,
        "total_outstanding_amount": 14401816,
        "total_fine_final_amount": 1044963,
        "is_HOP": false,
        "is_VVIP": false,
        "is_LPTD": false,
        "is_barter": false
      },
      {
        "contract_id": "01K09FWA56Z3N3CEGA6AB6H15Y",
        "unit_id": "01JZS1624Y11SVH3DRHQ7H6NT4",
        "customer_id": "01JZMKB3GBZWRJ8TEAEX6BQ61R",
        "action_type": 4,
        "action_due_date": "2025-10-23",
        "doc_number": "KML0/SPB/10/25/00061",
        "payment_schedule_detail_id": "01K131QDD0EXPAW81CYFKGYJ6B",
        "collection_action_log_id": "01K85Y2J2XCXJA82EF38DN251K",
        "cc_name": null,
        "to_name": null,
        "id": "01K85Y3EFD08ECT9R4AZZ65M6C",
        "created_by": "system",
        "updated_by": "system",
        "updated_at": "2025-10-23T12:25:04.907507",
        "created_at": "2025-10-23T12:25:04.907507",
        "collection_action_id": "01K5QS91C8KE89KCKPY8E3WXYZ",
        "iom_pengosongan_number": null,
        "surat_pengosongan_number": null,
        "has_attachment": false,
        "tracking_number": null,
        "send_via": null,
        "send_date": null,
        "upload_by": null,
        "status_cheque": false,
        "status_print": false,
        "status_wa": false,
        "unit_code": "KV5-036",
        "customer_name": "CHRISTANTO",
        "customer_code": null,
        "sub_project_name": "MEGA KUNINGAN VILLAGE",
        "sub_project_code": "CLMV",
        "reservation_no": "KML/RSV/1022/000011",
        "payment_schedule_no": "PS/1022/000139",
        "payment_schedule_date": "2025-07-25",
        "payment_schedule_descs": "KV5-036/Invoice Angsuran 34/36",
        "sp_type": "SPB",
        "bast_date": null,
        "total_outstanding_amount": 384700000,
        "total_fine_final_amount": 22777900,
        "is_HOP": false,
        "is_VVIP": false,
        "is_LPTD": false,
        "is_barter": false
      },
      {
        "contract_id": "01K09G0CK66GNANH8BC4AA7DRK",
        "unit_id": "06B261XCT7FZ3EHBY7A4JF5W34",
        "customer_id": "01JXKPZVAGW6Q4EY2Y57018908",
        "action_type": 4,
        "action_due_date": "2025-10-23",
        "doc_number": "MBM0/SPB/10/25/00118",
        "payment_schedule_detail_id": "01K1334ET18KQYT7WJT5472180",
        "collection_action_log_id": "01K85Y2J2XCXJA82EF38DN251K",
        "cc_name": null,
        "to_name": null,
        "id": "01K85Y3EFDBCG6SVPQ9V2ASBE9",
        "created_by": "system",
        "updated_by": "system",
        "updated_at": "2025-10-23T12:25:04.907507",
        "created_at": "2025-10-23T12:25:04.907507",
        "collection_action_id": "01K5QS91C9AJRH9JHHT423WAD2",
        "iom_pengosongan_number": null,
        "surat_pengosongan_number": null,
        "has_attachment": false,
        "tracking_number": null,
        "send_via": null,
        "send_date": null,
        "upload_by": null,
        "status_cheque": false,
        "status_print": true,
        "status_wa": false,
        "unit_code": "TRDT23-01",
        "customer_name": "RINA MEILANI",
        "customer_code": null,
        "sub_project_name": "VVTOKYO RIVERSIDE APARTMENT",
        "sub_project_code": "TRA-TRDT23",
        "reservation_no": "MBM/RSV/0821/000059",
        "payment_schedule_no": "PS/0422/007897",
        "payment_schedule_date": "2025-07-25",
        "payment_schedule_descs": "TRDT23-01/Invoice Angsuran 48/60",
        "sp_type": "SPB",
        "bast_date": null,
        "total_outstanding_amount": 25277727,
        "total_fine_final_amount": 1491386,
        "is_HOP": false,
        "is_VVIP": false,
        "is_LPTD": false,
        "is_barter": false
      },
      {
        "contract_id": "01K09G0CJS9KYRTCVWFWJ7HVJX",
        "unit_id": "06B261XCJDQDXVM14BH5SFH49C",
        "customer_id": "01JXKPZVAGX8KFD9EZ91F68TEC",
        "action_type": 4,
        "action_due_date": "2025-10-23",
        "doc_number": "MBM0/SPB/10/25/00119",
        "payment_schedule_detail_id": "01K1334F82BHKVG005R1HEEPBZ",
        "collection_action_log_id": "01K85Y2J2XCXJA82EF38DN251K",
        "cc_name": null,
        "to_name": null,
        "id": "01K85Y3EFDTJY8VKB7R9VEKTV1",
        "created_by": "system",
        "updated_by": "system",
        "updated_at": "2025-10-23T12:25:04.907507",
        "created_at": "2025-10-23T12:25:04.907507",
        "collection_action_id": "01K5QS91C9DREPDPP55FBQTCKK",
        "iom_pengosongan_number": null,
        "surat_pengosongan_number": null,
        "has_attachment": false,
        "tracking_number": null,
        "send_via": null,
        "send_date": null,
        "upload_by": null,
        "status_cheque": false,
        "status_print": true,
        "status_wa": false,
        "unit_code": "TRBP05-33",
        "customer_name": "DESYE",
        "customer_code": null,
        "sub_project_name": "VVTOKYO RIVERSIDE APARTMENT",
        "sub_project_code": "TRA-TRBP05",
        "reservation_no": "MBM/RSV/0724/000008",
        "payment_schedule_no": "PS/0724/000120",
        "payment_schedule_date": "2025-07-25",
        "payment_schedule_descs": "TRBP05-33/Invoice Angsuran 13/36",
        "sp_type": "SPB",
        "bast_date": null,
        "total_outstanding_amount": 27750000,
        "total_fine_final_amount": 1637250,
        "is_HOP": false,
        "is_VVIP": false,
        "is_LPTD": false,
        "is_barter": false
      }
    ],
    "total": 4718,
    "page": 1,
    "size": 15,
    "pages": 315,
    "next_page": 2,
    "previous_page": null
  }
}